tutorial_w05
…
Filter

glot_status <- readRDS("C:/Users/Chloé/Desktop/Données Rstudio/Data Analysis 2024/dal-2024/data/coretta2022/glot_status.rds")

glot_status

# A tibble: 8,345 × 18
   ID        Language_ID Parameter_ID Value Code_ID Comment Source codeReference
   <chr>     <chr>       <chr>        <chr> <chr>   <chr>   <chr>  <lgl>        
 1 kolp1236… kolp1236    aes          3     aes-sh… Kol (1… hh:he… NA           
 2 tana1288… tana1288    aes          3     aes-sh… Tanahm… hh:he… NA           
 3 touo1238… touo1238    aes          3     aes-sh… Touo (… hh:he… NA           
 4 bert1248… bert1248    aes          3     aes-sh… Fadash… hh:he… NA           
 5 sius1254… sius1254    aes          6     aes-ex… Siusla… hh:he… NA           
 6 cent2045… cent2045    aes          6     aes-ex… Jalaa … <NA>   NA           
 7 else1239… else1239    aes          3     aes-sh… Elseng… hh:he… NA           
 8 taia1239… taia1239    aes          4     aes-mo… Taiap … hh:he… NA           
 9 pyuu1245… pyuu1245    aes          3     aes-sh… Pyu (4… hh:he… NA           
10 mato1253… mato1253    aes          6     aes-ex… Arára … hh:he… NA           
# ℹ 8,335 more rows
# ℹ 10 more variables: status <fct>, Name <chr>, Macroarea <chr>,
#   Latitude <dbl>, Longitude <dbl>, Glottocode <chr>, ISO639P3code <chr>,
#   Countries <chr>, Family_ID <chr>, Language_ID.y <chr>

extinct <- glot_status |>
  filter(status == "extinct")

extinct

# A tibble: 1,250 × 18
   ID        Language_ID Parameter_ID Value Code_ID Comment Source codeReference
   <chr>     <chr>       <chr>        <chr> <chr>   <chr>   <chr>  <lgl>        
 1 sius1254… sius1254    aes          6     aes-ex… Siusla… hh:he… NA           
 2 cent2045… cent2045    aes          6     aes-ex… Jalaa … <NA>   NA           
 3 mato1253… mato1253    aes          6     aes-ex… Arára … hh:he… NA           
 4 kunz1244… kunz1244    aes          6     aes-ex… Atacam… hh:he… NA           
 5 atac1235… atac1235    aes          6     aes-ex… Atacam… <NA>   NA           
 6 beot1247… beot1247    aes          6     aes-ex… Beothu… <NA>   NA           
 7 kena1236… kena1236    aes          6     aes-ex… Kenabo… hh:he… NA           
 8 omur1241… omur1241    aes          6     aes-ex… Omuran… hh:h:… NA           
 9 garr1260… garr1260    aes          6     aes-ex… Garawa… <NA>   NA           
10 vile1241… vile1241    aes          6     aes-ex… Vilela… hh:he… NA           
# ℹ 1,240 more rows
# ℹ 10 more variables: status <fct>, Name <chr>, Macroarea <chr>,
#   Latitude <dbl>, Longitude <dbl>, Glottocode <chr>, ISO639P3code <chr>,
#   Countries <chr>, Family_ID <chr>, Language_ID.y <chr>

Allows the data to be filtered by a specific value of a column using logical operators.

not_extinct <- glot_status |>
  filter(status != "extinct")

not_extinct

# A tibble: 7,095 × 18
   ID        Language_ID Parameter_ID Value Code_ID Comment Source codeReference
   <chr>     <chr>       <chr>        <chr> <chr>   <chr>   <chr>  <lgl>        
 1 kolp1236… kolp1236    aes          3     aes-sh… Kol (1… hh:he… NA           
 2 tana1288… tana1288    aes          3     aes-sh… Tanahm… hh:he… NA           
 3 touo1238… touo1238    aes          3     aes-sh… Touo (… hh:he… NA           
 4 bert1248… bert1248    aes          3     aes-sh… Fadash… hh:he… NA           
 5 else1239… else1239    aes          3     aes-sh… Elseng… hh:he… NA           
 6 taia1239… taia1239    aes          4     aes-mo… Taiap … hh:he… NA           
 7 pyuu1245… pyuu1245    aes          3     aes-sh… Pyu (4… hh:he… NA           
 8 tabo1241… tabo1241    aes          3     aes-sh… Tabo (… hh:he… NA           
 9 kano1245… kano1245    aes          5     aes-ne… Kapixa… hh:he… NA           
10 usku1243… usku1243    aes          3     aes-sh… Afra (… hh:he… NA           
# ℹ 7,085 more rows
# ℹ 10 more variables: status <fct>, Name <chr>, Macroarea <chr>,
#   Latitude <dbl>, Longitude <dbl>, Glottocode <chr>, ISO639P3code <chr>,
#   Countries <chr>, Family_ID <chr>, Language_ID.y <chr>

south_america <- glot_status |>
  filter(status != "extinct", Macroarea == "South America")

south_america

# A tibble: 410 × 18
   ID        Language_ID Parameter_ID Value Code_ID Comment Source codeReference
   <chr>     <chr>       <chr>        <chr> <chr>   <chr>   <chr>  <lgl>        
 1 kano1245… kano1245    aes          5     aes-ne… Kapixa… hh:he… NA           
 2 mose1249… mose1249    aes          2     aes-th… Moseté… hh:he… NA           
 3 tini1245… tini1245    aes          5     aes-ne… Tinigu… hh:he… NA           
 4 taus1253… taus1253    aes          5     aes-ne… Taushi… hh:he… NA           
 5 cand1248… cand1248    aes          3     aes-sh… Candos… hh:he… NA           
 6 ando1256… ando1256    aes          3     aes-sh… Andoqu… hh:he… NA           
 7 kwaz1243… kwaz1243    aes          4     aes-mo… Kwaza … hh:he… NA           
 8 wara1303… wara1303    aes          2     aes-th… Warao … hh:he… NA           
 9 yuwa1244… yuwa1244    aes          3     aes-sh… Jotí (… hh:he… NA           
10 urar1246… urar1246    aes          3     aes-sh… Urarin… hh:he… NA           
# ℹ 400 more rows
# ℹ 10 more variables: status <fct>, Name <chr>, Macroarea <chr>,
#   Latitude <dbl>, Longitude <dbl>, Glottocode <chr>, ISO639P3code <chr>,
#   Countries <chr>, Family_ID <chr>, Language_ID.y <chr>

The filtering can be done using more than one argument. Combining statements will only give rows where both conditions apply.

glot_status |>
  filter(status == "not_endangered", Macroarea != "Eurasia")

# A tibble: 2,326 × 18
   ID        Language_ID Parameter_ID Value Code_ID Comment Source codeReference
   <chr>     <chr>       <chr>        <chr> <chr>   <chr>   <chr>  <lgl>        
 1 duna1248… duna1248    aes          1     aes-no… Duna (… hh:h:… NA           
 2 siam1242… siam1242    aes          1     aes-no… Siamou… hh:h:… NA           
 3 nara1262… nara1262    aes          1     aes-no… Nara (… hh:h:… NA           
 4 maib1239… maib1239    aes          1     aes-no… Mai Br… hh:h:… NA           
 5 kuna1268… kuna1268    aes          1     aes-no… Kunama… hh:h:… NA           
 6 namb1293… namb1293    aes          1     aes-no… Nambo … hh:h:… NA           
 7 neme1244… neme1244    aes          1     aes-no… Neme (… hh:h:… NA           
 8 nama1266… nama1266    aes          1     aes-no… Nama (… hh:h:… NA           
 9 gunt1241… gunt1241    aes          1     aes-no… Wartha… hh:h:… NA           
10 aram1253… aram1253    aes          1     aes-no… Aramba… hh:h:… NA           
# ℹ 2,316 more rows
# ℹ 10 more variables: status <fct>, Name <chr>, Macroarea <chr>,
#   Latitude <dbl>, Longitude <dbl>, Glottocode <chr>, ISO639P3code <chr>,
#   Countries <chr>, Family_ID <chr>, Language_ID.y <chr>

global_south <- glot_status |>
  filter(
    Macroarea %in% c("Africa", "Australia", "Papunesia", "South America"),
    status %in% c("threatened", "shifting", "moribund", "nearly_extinct")
  )

global_south

# A tibble: 2,637 × 18
   ID        Language_ID Parameter_ID Value Code_ID Comment Source codeReference
   <chr>     <chr>       <chr>        <chr> <chr>   <chr>   <chr>  <lgl>        
 1 kolp1236… kolp1236    aes          3     aes-sh… Kol (1… hh:he… NA           
 2 tana1288… tana1288    aes          3     aes-sh… Tanahm… hh:he… NA           
 3 touo1238… touo1238    aes          3     aes-sh… Touo (… hh:he… NA           
 4 bert1248… bert1248    aes          3     aes-sh… Fadash… hh:he… NA           
 5 else1239… else1239    aes          3     aes-sh… Elseng… hh:he… NA           
 6 taia1239… taia1239    aes          4     aes-mo… Taiap … hh:he… NA           
 7 pyuu1245… pyuu1245    aes          3     aes-sh… Pyu (4… hh:he… NA           
 8 tabo1241… tabo1241    aes          3     aes-sh… Tabo (… hh:he… NA           
 9 kano1245… kano1245    aes          5     aes-ne… Kapixa… hh:he… NA           
10 usku1243… usku1243    aes          3     aes-sh… Afra (… hh:he… NA           
# ℹ 2,627 more rows
# ℹ 10 more variables: status <fct>, Name <chr>, Macroarea <chr>,
#   Latitude <dbl>, Longitude <dbl>, Glottocode <chr>, ISO639P3code <chr>,
#   Countries <chr>, Family_ID <chr>, Language_ID.y <chr>
…
