Tutorial week 06
…
shallow = read_csv("data/song2020/shallow.csv")

Rows: 6500 Columns: 11
── Column specification ────────────────────────────────────────────────────────
Delimiter: ","
chr (8): Group, ID, List, Target, Critical_Filler, Word_Nonword, Relation_ty...
dbl (3): ACC, RT, logRT

ℹ Use `spec()` to retrieve the full column specification for this data.
ℹ Specify the column types or set `show_col_types = FALSE` to quiet this message.

shallow

# A tibble: 6,500 × 11
   Group ID    List  Target        ACC    RT logRT Critical_Filler Word_Nonword
   <chr> <chr> <chr> <chr>       <dbl> <dbl> <dbl> <chr>           <chr>       
 1 L1    L1_01 A     banoshment      1   423  6.05 Filler          Nonword     
 2 L1    L1_01 A     unawareness     1   603  6.40 Critical        Word        
 3 L1    L1_01 A     unholiness      1   739  6.61 Critical        Word        
 4 L1    L1_01 A     bictimize       1   510  6.23 Filler          Nonword     
 5 L1    L1_01 A     unhappiness     1   370  5.91 Critical        Word        
 6 L1    L1_01 A     entertainer     1   689  6.54 Filler          Word        
 7 L1    L1_01 A     unsharpness     1   821  6.71 Critical        Word        
 8 L1    L1_01 A     fersistent      1   677  6.52 Filler          Nonword     
 9 L1    L1_01 A     specificity     0   798  6.68 Filler          Word        
10 L1    L1_01 A     termination     1   610  6.41 Filler          Word        
# ℹ 6,490 more rows
# ℹ 2 more variables: Relation_type <chr>, Branching <chr>
…
# A tibble: 3 × 5
  months Count_mean Count_max Count_min Count_range
   <dbl>      <dbl>     <dbl>     <dbl>       <dbl>
1     10      0.715        39         0          39
2     11      1.32         41         0          41
3     12      1.86         42         0          42

gestures |>
  group_by(dyad) |>
  summarise(Count_tot = sum(count))

# A tibble: 60 × 2
   dyad  Count_tot
   <chr>     <dbl>
 1 b01          17
 2 b02          36
 3 b03          43
 4 b04          50
 5 b05          33
 6 b06          24
 7 b07          16
 8 b08          37
 9 b09          26
10 b10          13
# ℹ 50 more rows
…
